%YAML 1.1
%TAG !u! tag:unity3d.com,2011:
--- !u!29 &1
SceneSettings:
  m_ObjectHideFlags: 0
  m_PVSData: 
  m_PVSObjectsArray: []
  m_PVSPortalsArray: []
  m_OcclusionBakeSettings:
    smallestOccluder: 5
    smallestHole: .25
    backfaceThreshold: 100
--- !u!104 &2
RenderSettings:
  m_Fog: 0
  m_FogColor: {r: .5, g: .5, b: .5, a: 1}
  m_FogMode: 3
  m_FogDensity: .00999999978
  m_LinearFogStart: 0
  m_LinearFogEnd: 300
  m_AmbientLight: {r: .200000003, g: .200000003, b: .200000003, a: 1}
  m_SkyboxMaterial: {fileID: 0}
  m_HaloStrength: .5
  m_FlareStrength: 1
  m_FlareFadeSpeed: 3
  m_HaloTexture: {fileID: 0}
  m_SpotCookie: {fileID: 0}
  m_ObjectHideFlags: 0
--- !u!127 &3
LevelGameManager:
  m_ObjectHideFlags: 0
--- !u!157 &4
LightmapSettings:
  m_ObjectHideFlags: 0
  m_LightProbes: {fileID: 0}
  m_Lightmaps: []
  m_LightmapsMode: 1
  m_BakedColorSpace: 0
  m_UseDualLightmapsInForward: 0
  m_LightmapEditorSettings:
    m_Resolution: 50
    m_LastUsedResolution: 0
    m_TextureWidth: 1024
    m_TextureHeight: 1024
    m_BounceBoost: 1
    m_BounceIntensity: 1
    m_SkyLightColor: {r: .860000014, g: .930000007, b: 1, a: 1}
    m_SkyLightIntensity: 0
    m_Quality: 0
    m_Bounces: 1
    m_FinalGatherRays: 1000
    m_FinalGatherContrastThreshold: .0500000007
    m_FinalGatherGradientThreshold: 0
    m_FinalGatherInterpolationPoints: 15
    m_AOAmount: 0
    m_AOMaxDistance: .100000001
    m_AOContrast: 1
    m_LODSurfaceMappingDistance: 1
    m_Padding: 0
    m_TextureCompression: 0
    m_LockAtlas: 0
--- !u!196 &5
NavMeshSettings:
  m_ObjectHideFlags: 0
  m_BuildSettings:
    agentRadius: .5
    agentHeight: 2
    agentSlope: 45
    agentClimb: .400000006
    ledgeDropHeight: 0
    maxJumpAcrossDistance: 0
    accuratePlacement: 0
    minRegionArea: 2
    widthInaccuracy: 16.666666
    heightInaccuracy: 10
  m_NavMesh: {fileID: 0}
--- !u!1 &611535192
GameObject:
  m_ObjectHideFlags: 0
  m_PrefabParentObject: {fileID: 0}
  m_PrefabInternal: {fileID: 0}
  serializedVersion: 4
  m_Component:
  - 4: {fileID: 611535197}
  - 20: {fileID: 611535196}
  - 92: {fileID: 611535195}
  - 124: {fileID: 611535194}
  - 81: {fileID: 611535193}
  m_Layer: 0
  m_Name: Main Camera
  m_TagString: MainCamera
  m_Icon: {fileID: 0}
  m_NavMeshLayer: 0
  m_StaticEditorFlags: 0
  m_IsActive: 1
--- !u!81 &611535193
AudioListener:
  m_ObjectHideFlags: 0
  m_PrefabParentObject: {fileID: 0}
  m_PrefabInternal: {fileID: 0}
  m_GameObject: {fileID: 611535192}
  m_Enabled: 1
--- !u!124 &611535194
Behaviour:
  m_ObjectHideFlags: 0
  m_PrefabParentObject: {fileID: 0}
  m_PrefabInternal: {fileID: 0}
  m_GameObject: {fileID: 611535192}
  m_Enabled: 1
--- !u!92 &611535195
Behaviour:
  m_ObjectHideFlags: 0
  m_PrefabParentObject: {fileID: 0}
  m_PrefabInternal: {fileID: 0}
  m_GameObject: {fileID: 611535192}
  m_Enabled: 1
--- !u!20 &611535196
Camera:
  m_ObjectHideFlags: 0
  m_PrefabParentObject: {fileID: 0}
  m_PrefabInternal: {fileID: 0}
  m_GameObject: {fileID: 611535192}
  m_Enabled: 1
  serializedVersion: 2
  m_ClearFlags: 1
  m_BackGroundColor: {r: .192156866, g: .301960796, b: .474509805, a: .0196078438}
  m_NormalizedViewPortRect:
    serializedVersion: 2
    x: 0
    y: 0
    width: 1
    height: 1
  near clip plane: .300000012
  far clip plane: 1000
  field of view: 60
  orthographic: 1
  orthographic size: 5
  m_Depth: -1
  m_CullingMask:
    serializedVersion: 2
    m_Bits: 4294967295
  m_RenderingPath: -1
  m_TargetTexture: {fileID: 0}
  m_TargetDisplay: 0
  m_HDR: 0
  m_OcclusionCulling: 1
  m_StereoConvergence: 10
  m_StereoSeparation: .0219999999
--- !u!4 &611535197
Transform:
  m_ObjectHideFlags: 0
  m_PrefabParentObject: {fileID: 0}
  m_PrefabInternal: {fileID: 0}
  m_GameObject: {fileID: 611535192}
  m_LocalRotation: {x: 0, y: 0, z: 0, w: 1}
  m_LocalPosition: {x: 0, y: 0, z: -10}
  m_LocalScale: {x: 1, y: 1, z: 1}
  m_Children: []
  m_Father: {fileID: 0}
  m_RootOrder: 0
--- !u!1 &804194297
GameObject:
  m_ObjectHideFlags: 0
  m_PrefabParentObject: {fileID: 100000, guid: 77fa0a5a31e84452f8e7465fe6665be3, type: 2}
  m_PrefabInternal: {fileID: 1481952424}
  serializedVersion: 4
  m_Component:
  - 4: {fileID: 804194299}
  - 212: {fileID: 804194298}
  - 114: {fileID: 804194300}
  - 50: {fileID: 804194302}
  - 60: {fileID: 804194301}
  - 114: {fileID: 804194303}
  m_Layer: 0
  m_Name: playerShip
  m_TagString: Player
  m_Icon: {fileID: 0}
  m_NavMeshLayer: 0
  m_StaticEditorFlags: 0
  m_IsActive: 1
--- !u!212 &804194298
SpriteRenderer:
  m_ObjectHideFlags: 0
  m_PrefabParentObject: {fileID: 21200000, guid: 77fa0a5a31e84452f8e7465fe6665be3,
    type: 2}
  m_PrefabInternal: {fileID: 1481952424}
  m_GameObject: {fileID: 804194297}
  m_Enabled: 1
  m_CastShadows: 0
  m_ReceiveShadows: 0
  m_LightmapIndex: 255
  m_LightmapTilingOffset: {x: 1, y: 1, z: 0, w: 0}
  m_Materials:
  - {fileID: 10754, guid: 0000000000000000e000000000000000, type: 0}
  m_SubsetIndices: 
  m_StaticBatchRoot: {fileID: 0}
  m_UseLightProbes: 0
  m_LightProbeAnchor: {fileID: 0}
  m_ScaleInLightmap: 1
  m_SortingLayerID: 0
  m_SortingOrder: 0
  m_Sprite: {fileID: 21300000, guid: ef98a27a241c246f5bc3d871bfc5fd9d, type: 3}
  m_Color: {r: 1, g: 1, b: 1, a: 1}
--- !u!4 &804194299
Transform:
  m_ObjectHideFlags: 0
  m_PrefabParentObject: {fileID: 400000, guid: 77fa0a5a31e84452f8e7465fe6665be3, type: 2}
  m_PrefabInternal: {fileID: 1481952424}
  m_GameObject: {fileID: 804194297}
  m_LocalRotation: {x: 0, y: 0, z: 0, w: 1}
  m_LocalPosition: {x: 0, y: -3.60281277, z: 0}
  m_LocalScale: {x: 1, y: 1, z: 1}
  m_Children: []
  m_Father: {fileID: 0}
  m_RootOrder: 1
--- !u!114 &804194300
MonoBehaviour:
  m_ObjectHideFlags: 0
  m_PrefabParentObject: {fileID: 11400000, guid: 77fa0a5a31e84452f8e7465fe6665be3,
    type: 2}
  m_PrefabInternal: {fileID: 1481952424}
  m_GameObject: {fileID: 804194297}
  m_Enabled: 1
  m_EditorHideFlags: 0
  m_Script: {fileID: 11500000, guid: 7d6a955c8197e42fca3be3ca6610a3f3, type: 3}
  m_Name: 
  m_EditorClassIdentifier: 
  leftBound: -6
  rightBound: 6
  topBound: 3
  bottomBound: -3
  speed: .200000003
  laserPrefab: {fileID: 100000, guid: 031b79a76d6524fe8b5907d8a8532a60, type: 2}
  fireDelay: .25
--- !u!60 &804194301
PolygonCollider2D:
  m_ObjectHideFlags: 0
  m_PrefabParentObject: {fileID: 6000000, guid: 77fa0a5a31e84452f8e7465fe6665be3,
    type: 2}
  m_PrefabInternal: {fileID: 1481952424}
  m_GameObject: {fileID: 804194297}
  m_Enabled: 1
  m_Material: {fileID: 0}
  m_IsTrigger: 0
  m_Poly:
    m_Paths:
    - - {x: .495000005, y: .125}
      - {x: .275000006, y: .104999997}
      - {x: .125, y: .234999999}
      - {x: .135000005, y: .375}
      - {x: -.104999997, y: .375}
      - {x: -.144999996, y: .125}
      - {x: -.264999986, y: .0649999976}
      - {x: -.495000005, y: .0949999988}
      - {x: -.495000005, y: -.245000005}
      - {x: -.425000012, y: -.284999996}
      - {x: -.144999996, y: -.294999987}
      - {x: -.0949999988, y: -.375}
      - {x: .104999997, y: -.375}
      - {x: .254999995, y: -.284999996}
      - {x: .455000013, y: -.264999986}
      - {x: .495000005, y: -.254999995}
--- !u!50 &804194302
Rigidbody2D:
  m_ObjectHideFlags: 0
  m_PrefabParentObject: {fileID: 5000000, guid: 77fa0a5a31e84452f8e7465fe6665be3,
    type: 2}
  m_PrefabInternal: {fileID: 1481952424}
  m_GameObject: {fileID: 804194297}
  m_Mass: 1
  m_LinearDrag: 0
  m_AngularDrag: .0500000007
  m_GravityScale: 1
  m_FixedAngle: 0
  m_IsKinematic: 1
  m_Interpolate: 0
  m_SleepingMode: 1
  m_CollisionDetection: 0
--- !u!114 &804194303
MonoBehaviour:
  m_ObjectHideFlags: 0
  m_PrefabParentObject: {fileID: 11400002, guid: 77fa0a5a31e84452f8e7465fe6665be3,
    type: 2}
  m_PrefabInternal: {fileID: 1481952424}
  m_GameObject: {fileID: 804194297}
  m_Enabled: 1
  m_EditorHideFlags: 0
  m_Script: {fileID: 11500000, guid: 4ad85892541114d95abd6d5d6ed6a68d, type: 3}
  m_Name: 
  m_EditorClassIdentifier: 
  board: {fileID: 0}
  value: -10
--- !u!1001 &1481952424
Prefab:
  m_ObjectHideFlags: 0
  serializedVersion: 2
  m_Modification:
    m_TransformParent: {fileID: 0}
    m_Modifications:
    - target: {fileID: 400000, guid: 77fa0a5a31e84452f8e7465fe6665be3, type: 2}
      propertyPath: m_LocalPosition.x
      value: 0
      objectReference: {fileID: 0}
    - target: {fileID: 400000, guid: 77fa0a5a31e84452f8e7465fe6665be3, type: 2}
      propertyPath: m_LocalPosition.y
      value: -3.60281277
      objectReference: {fileID: 0}
    - target: {fileID: 400000, guid: 77fa0a5a31e84452f8e7465fe6665be3, type: 2}
      propertyPath: m_LocalPosition.z
      value: 0
      objectReference: {fileID: 0}
    - target: {fileID: 400000, guid: 77fa0a5a31e84452f8e7465fe6665be3, type: 2}
      propertyPath: m_LocalRotation.x
      value: 0
      objectReference: {fileID: 0}
    - target: {fileID: 400000, guid: 77fa0a5a31e84452f8e7465fe6665be3, type: 2}
      propertyPath: m_LocalRotation.y
      value: 0
      objectReference: {fileID: 0}
    - target: {fileID: 400000, guid: 77fa0a5a31e84452f8e7465fe6665be3, type: 2}
      propertyPath: m_LocalRotation.z
      value: 0
      objectReference: {fileID: 0}
    - target: {fileID: 400000, guid: 77fa0a5a31e84452f8e7465fe6665be3, type: 2}
      propertyPath: m_LocalRotation.w
      value: 1
      objectReference: {fileID: 0}
    - target: {fileID: 400000, guid: 77fa0a5a31e84452f8e7465fe6665be3, type: 2}
      propertyPath: m_RootOrder
      value: 1
      objectReference: {fileID: 0}
    m_RemovedComponents: []
  m_ParentPrefab: {fileID: 100100000, guid: 77fa0a5a31e84452f8e7465fe6665be3, type: 2}
  m_RootGameObject: {fileID: 804194297}
  m_IsPrefabParent: 0
  m_IsExploded: 1
--- !u!1 &1665295677
GameObject:
  m_ObjectHideFlags: 0
  m_PrefabParentObject: {fileID: 0}
  m_PrefabInternal: {fileID: 0}
  serializedVersion: 4
  m_Component:
  - 4: {fileID: 1665295679}
  - 114: {fileID: 1665295678}
  m_Layer: 0
  m_Name: ScoreBoard
  m_TagString: ScoreBoard
  m_Icon: {fileID: 0}
  m_NavMeshLayer: 0
  m_StaticEditorFlags: 0
  m_IsActive: 1
--- !u!114 &1665295678
MonoBehaviour:
  m_ObjectHideFlags: 0
  m_PrefabParentObject: {fileID: 0}
  m_PrefabInternal: {fileID: 0}
  m_GameObject: {fileID: 1665295677}
  m_Enabled: 1
  m_EditorHideFlags: 0
  m_Script: {fileID: 11500000, guid: 2c503f1c748f042d28cec053f8370589, type: 3}
  m_Name: 
  m_EditorClassIdentifier: 
  _score: 0
--- !u!4 &1665295679
Transform:
  m_ObjectHideFlags: 0
  m_PrefabParentObject: {fileID: 0}
  m_PrefabInternal: {fileID: 0}
  m_GameObject: {fileID: 1665295677}
  m_LocalRotation: {x: 0, y: 0, z: 0, w: 1}
  m_LocalPosition: {x: 0, y: 0, z: 0}
  m_LocalScale: {x: 1, y: 1, z: 1}
  m_Children: []
  m_Father: {fileID: 0}
  m_RootOrder: 3
--- !u!1 &1982904656
GameObject:
  m_ObjectHideFlags: 0
  m_PrefabParentObject: {fileID: 0}
  m_PrefabInternal: {fileID: 0}
  serializedVersion: 4
  m_Component:
  - 4: {fileID: 1982904658}
  - 114: {fileID: 1982904657}
  m_Layer: 0
  m_Name: AsteroidField
  m_TagString: Untagged
  m_Icon: {fileID: 0}
  m_NavMeshLayer: 0
  m_StaticEditorFlags: 0
  m_IsActive: 1
--- !u!114 &1982904657
MonoBehaviour:
  m_ObjectHideFlags: 0
  m_PrefabParentObject: {fileID: 0}
  m_PrefabInternal: {fileID: 0}
  m_GameObject: {fileID: 1982904656}
  m_Enabled: 1
  m_EditorHideFlags: 0
  m_Script: {fileID: 11500000, guid: 42faafdb5f48e4417bf9729841b6ee1e, type: 3}
  m_Name: 
  m_EditorClassIdentifier: 
  asteroidPrefabs:
  - {fileID: 100000, guid: dfc0a18e785104c6792823d287be13bf, type: 2}
  - {fileID: 100000, guid: 9831e9424bd994d4288a0d3db12d941a, type: 2}
  movementSpeed: {x: 0, y: -.00999999978}
  xRange: {x: -6, y: 6}
  spawnRate: 1
--- !u!4 &1982904658
Transform:
  m_ObjectHideFlags: 0
  m_PrefabParentObject: {fileID: 0}
  m_PrefabInternal: {fileID: 0}
  m_GameObject: {fileID: 1982904656}
  m_LocalRotation: {x: 0, y: 0, z: 0, w: 1}
  m_LocalPosition: {x: 0, y: 6.57711744, z: 0}
  m_LocalScale: {x: 1, y: 1, z: 1}
  m_Children: []
  m_Father: {fileID: 0}
  m_RootOrder: 2
